Extracting election data from spreadsheets • medslcleaner
…
Associate headers with cells

cells = cells %>%
  filter(row > 2) %>%
  behead('W', 'precinct')

cells %>%
  filter(row > 4) %>%
  arrange(row, col) %>%
  select(address, row, col, character, numeric, precinct)

## # A tibble: 35 x 6
##    address   row   col character numeric precinct  
##    <chr>   <int> <int> <chr>       <dbl> <chr>     
##  1 B5          5     2 <NA>         2035 Allenstown
##  2 C5          5     3 <NA>            8 Allenstown
##  3 D5          5     4 <NA>         2013 Allenstown
##  4 E5          5     5 <NA>            3 Allenstown
##  5 F5          5     6 <NA>         1296 Allenstown
##  6 G5          5     7 <NA>          699 Allenstown
##  7 H5          5     8 <NA>            2 Allenstown
##  8 B6          6     2 <NA>         1310 Andover   
##  9 C6          6     3 <NA>            3 Andover   
## 10 D6          6     4 <NA>         1277 Andover   
## # ... with 25 more rows

Associate headers with cells

cells = cells %>%
  behead('NNW', 'office') %>%
  behead('N', 'candidate')

cells %>%
  arrange(row, col) %>%
  select(address, row, col, character, numeric, precinct, office, candidate)

## # A tibble: 35 x 8
##    address   row   col character numeric precinct   office    candidate   
##    <chr>   <int> <int> <chr>       <dbl> <chr>      <chr>     <chr>       
##  1 B5          5     2 <NA>         2035 Allenstown Sheriff   Hilliard, r…
##  2 C5          5     3 <NA>            8 Allenstown Sheriff   Scatter     
##  3 D5          5     4 <NA>         2013 Allenstown Attorney  Murray, r/d 
##  4 E5          5     5 <NA>            3 Allenstown Attorney  Scatter     
##  5 F5          5     6 <NA>         1296 Allenstown Treasurer " Hammond, …
##  6 G5          5     7 <NA>          699 Allenstown Treasurer Rodriguez, d
##  7 H5          5     8 <NA>            2 Allenstown Treasurer Scatter     
##  8 B6          6     2 <NA>         1310 Andover    Sheriff   Hilliard, r…
##  9 C6          6     3 <NA>            3 Andover    Sheriff   Scatter     
## 10 D6          6     4 <NA>         1277 Andover    Attorney  Murray, r/d 
## # ... with 25 more rows
…
